{
	"app-name": "Java Dictionary",
	"app-version": 1.0,

	"app-author": "thanhtung.uet",
	"app-author-facebook": "https://www.facebook.com/thanhtung.uet/about",
	"app-author-help": "https://www.messenger.com/t/thanhtung.uet",

	"app-database": "dictionary.db",
	"app-welcome-delay": 2,

	"window-width": 800,
	"window-height": 600,
	"text-input-cols": 40,
	
	"lang-start": "Start application",
	"lang-exit": "Exit application",
	"lang-menu-file": "Application",
	"lang-menu-file-exit": "Exit (Alt + F4)",
	"lang-menu-edit": "Edit",
	"lang-menu-edit-new": "New word",
	"lang-menu-edit-update": "Update word",
	"lang-menu-edit-delete": "Delete word",
	"lang-menu-about": "About",
	"lang-menu-about-me": "About me",
	"lang-menu-about-help": "Help",
	
	"lang-null-popup-title": "Null popup",
	
	"lang-mode-EN_VN": "En - Vi",
	"lang-mode-VN_EN": "Vi - En",
	"lang-btn-translate": "Search",
	
	"app-guide":
"Click word on the list to view
Type text into text field to search
Click the button to change translate mode
Menu:
	+ Application > Exit: Exit app      (Ctrl + W)
	
	+ Edit > New word:    add a word    (Ctrl + N)
	+ Edit > Update word: edit a word   (Ctrl + E)
	+ Edit > Delete word: delete a word (Ctrl + D)
	
	+ About > Me: My Facebook
	+ About > Help: Contact me on Messenger
Thanks! Best regards."
}